[
    {
      "name": "Война и мир",
      "author": "Лев Толстой",
      "year_of_publication": 1869,
      "genre": "Роман-эпопея",
      "language": "Русский"
       },
    {
      "name": "Гарри Поттер и философский камень",
      "author": "J.K. Rowling",
      "year_of_publication": 1997,
      "genre": "Фэнтези",
      "language": "Английский"
       },
    {
      "name": "Атлант расправил плечи",
      "author": "Айн Рэнд",
      "year_of_publication": 1957,
      "genre": "Роман-антиутопия",
      "language": "Английский"
      }
  ]
  